{
	"contentrating" : "Everyone",
	"description" : "",
	"file" : "index.html",
	"general" :
	{
		"properties" :
		{
			"music_backgroundImage" :
			{
				"condition" : "music_customBackground.value==true",
				"order" : 8,
				"text" : "Background Image",
				"type" : "file"
			},
			"music_barPadding" :
			{
				"max" : 10,
				"min" : 0,
				"order" : 12,
				"text" : "Bar Padding",
				"type" : "slider",
				"value" : 5
			},
			"music_barWidth" :
			{
				"max" : 35,
				"min" : 1,
				"order" : 11,
				"text" : "Bar Width",
				"type" : "slider",
				"value" : 20
			},
			"music_colourCombo" :
			{
				"condition" : "music_customColour.value==false",
				"options" :
				[
					{
						"label" : "Drumstep",
						"value" : "#F7218A"
					},
					{
						"label" : "House",
						"value" : "#F58D00"
					},
					{
						"label" : "Drum & Bass",
						"value" : "#FF0000"
					},
					{
						"label" : "Nu Disco/Indie Dance",
						"value" : "#1DAAB5"
					},
					{
						"label" : "Hard Dance/Hardcore",
						"value" : "#029700"
					},
					{
						"label" : "Dubstep",
						"value" : "#961EEA"
					},
					{
						"label" : "Electro",
						"value" : "#E7CD00"
					},
					{
						"label" : "Glitch Hop",
						"value" : "#0C9658"
					},
					{
						"label" : "Trance",
						"value" : "#007DE9"
					},
					{
						"label" : "Album Mix",
						"value" : "#FFFFFF"
					},
					{
						"label" : "Trap",
						"value" : "#8D0E28"
					},
					{
						"label" : "Misc (EDM, Trap, Bounce, etc)",
						"value" : "#C2C1C2"
					}
				],
				"order" : 6,
				"text" : "Colour Presets",
				"type" : "combo",
				"value" : "#F7218A"
			},
			"music_colourPicker" :
			{
				"condition" : "music_customColour.value==true",
				"order" : 6,
				"text" : "Colour",
				"type" : "color",
				"value" : "1 1 1"
			},
			"music_customBackground" :
			{
				"order" : 7,
				"text" : "Custom Background",
				"type" : "bool",
				"value" : false
			},
			"music_customColour" :
			{
				"order" : 5,
				"text" : "Custom Colour",
				"type" : "bool",
				"value" : false
			},
			"music_customLogo" :
			{
				"order" : 13,
				"text" : "Custom Logo",
				"type" : "bool",
				"value" : false
			},
			"music_customText" :
			{
				"text" : "Text Colour",
				"type" : "color",
				"value" : "1 1 1"
			},
			"music_enableParticles" :
			{
				"order" : 3,
				"text" : "Background Particles",
				"type" : "bool",
				"value" : true
			},
			"music_enableSpotify" :
			{
				"order" : 19,
				"text" : "<h3>Enable Spotify (Experimental)</h3>",
				"type" : "bool",
				"value" : false
			},
			"music_equalizeAudio" :
			{
				"order" : 10,
				"text" : "Equalize Audio",
				"type" : "bool",
				"value" : true
			},
			"music_fps" :
			{
				"max" : 60,
				"min" : 0,
				"order" : 15,
				"text" : "FPS<br><small>(0 is uncapped)</small>",
				"type" : "slider",
				"value" : 30
			},
			"music_header" :
			{
				"order" : 1,
				"text" : "Header",
				"type" : "textinput",
				"value" : "Header"
			},
			"music_headerSize" :
			{
				"max" : 200,
				"min" : 25,
				"order" : 17,
				"text" : "Header font size",
				"type" : "slider",
				"value" : 100
			},
			"music_hideBox" :
			{
				"text" : "Hide Logo Background",
				"type" : "bool",
				"value" : false
			},
			"music_logoImage" :
			{
				"condition" : "music_customLogo.value==true",
				"order" : 14,
				"text" : "Logo Image",
				"type" : "file"
			},
			"music_particleAmount" :
			{
				"condition" : "music_enableParticles.value==true",
				"editable" : true,
				"max" : 400,
				"min" : 1,
				"order" : 4,
				"text" : "Particle Quantity",
				"type" : "slider",
				"value" : 150
			},
			"music_particleSpeed" :
			{
				"max" : 10,
				"min" : 1,
				"text" : "Particle Reactiveness",
				"type" : "slider",
				"value" : 5
			},
			"music_peak" :
			{
				"editable" : true,
				"max" : 5,
				"min" : 1,
				"text" : "Peak Emphasis",
				"type" : "slider",
				"value" : 1
			},
			"music_refreshToken" :
			{
				"condition" : "music_enableSpotify.value==true",
				"order" : 21,
				"text" : "Refresh Token<br/><small>Please goto <a href='http://bit.ly/AudioVIS' target='_blank'>bit.ly/AudioVIS</a> to generate a token</a></small>",
				"type" : "textinput",
				"value" : ""
			},
			"music_schemecolor" :
			{
				"order" : 0,
				"text" : "ui_browse_properties_scheme_color",
				"type" : "color",
				"value" : "0 0 0"
			},
			"music_smoothingFactor" :
			{
				"max" : 10,
				"min" : 1,
				"order" : 9,
				"text" : "Audio Smoothing",
				"type" : "slider",
				"value" : 5
			},
			"music_spotifyLogo" :
			{
				"condition" : "music_enableSpotify.value==true",
				"order" : 22,
				"text" : "Use Spotify Logo (overwrites icon)",
				"type" : "bool",
				"value" : false
			},
			"music_subHeader" :
			{
				"order" : 2,
				"text" : "Sub Header",
				"type" : "textinput",
				"value" : "Sub Header"
			},
			"music_subheaderSize" :
			{
				"max" : 200,
				"min" : 25,
				"order" : 18,
				"text" : "Sub Header font size",
				"type" : "slider",
				"value" : 50
			},
			"music_syncColour" :
			{
				"condition" : "music_spotifyLogo.value==true && music_enableSpotify.value==true",
				"order" : 23,
				"text" : "Sync to logo colour",
				"type" : "bool",
				"value" : false
			},
			"music_titleOrder" :
			{
				"condition" : "music_enableSpotify.value==true",
				"order" : 24,
				"text" : "Title in header",
				"type" : "bool",
				"value" : true
			},
			"music_updateRate" :
			{
				"condition" : "music_enableSpotify.value==true",
				"max" : 10,
				"min" : 2,
				"order" : 25,
				"text" : "Update Rate<br/><small>(How often spotify data is sent)</small>",
				"type" : "slider",
				"value" : 5
			},
			"clock_schemecolor" :
			{
				"order" : 0,
				"text" : "ui_browse_properties_scheme_color",
				"type" : "color",
				"value" : "0 0 0"
			},
			"background_ClockSetting" :
			{
				"order" : 2,
				"text" : "<b>Clock Setting</b>",
				"type" : "text"
			},
			"background_DateSetting" :
			{
				"order" : 15,
				"text" : "<b>Date Setting</b>",
				"type" : "text"
			},
			"background_Dateformat" :
			{
				"order" : 17,
				"text" : "Date Format",
				"type" : "bool",
				"value" : false
			},
			"background_IfYouWant" :
			{
				"condition" : "Dateformat.value",
				"editable" : true,
				"order" : 18,
				"text" : "<big>A short record of the month and day works only for English, Ukrainian and Russian languages. If you want to add your native language, welcome to the comments ;)</big>",
				"type" : "text"
			},
			"background_Second" :
			{
				"order" : 5,
				"text" : "Turn off/on, seconds",
				"type" : "bool",
				"value" : false
			},
			"background_Time" :
			{
				"order" : 4,
				"text" : "Turn off/on, 12 hour format",
				"type" : "bool",
				"value" : false
			},
			"background_backgroundSetting" :
			{
				"order" : 34,
				"text" : "<b>Other Setting</b>",
				"type" : "text"
			},
			"background_bgstyles" :
			{
				"options" :
				[
					{
						"label" : "Mocha",
						"value" : 1
					},
					{
						"label" : "Makara",
						"value" : 2
					},
					{
						"label" : "Dunked",
						"value" : 3
					},
					{
						"label" : "Russet",
						"value" : 4
					},
					{
						"label" : "Verdun Green",
						"value" : 5
					},
					{
						"label" : "Camarone",
						"value" : 6
					},
					{
						"label" : "Deep Teal",
						"value" : 7
					},
					{
						"label" : "Blue Stone",
						"value" : 8
					},
					{
						"label" : "Paua",
						"value" : 9
					},
					{
						"label" : "Seance",
						"value" : 10
					},
					{
						"label" : "Dark Purple",
						"value" : 11
					},
					{
						"label" : "Flirt",
						"value" : 12
					},
					{
						"label" : "Cadillac",
						"value" : 13
					},
					{
						"label" : "Arapawa",
						"value" : 14
					},
					{
						"label" : "Dim Gray",
						"value" : 15
					},
					{
						"label" : "Bittersweet",
						"value" : 16
					}
				],
				"order" : 36,
				"text" : "Background Style",
				"type" : "combo",
				"value" : 1
			},
			"background_bluro" :
			{
				"max" : 50,
				"min" : 0,
				"order" : 35,
				"text" : "Blur Intensity",
				"type" : "slider",
				"value" : 0
			},
			"background_clockR" :
			{
				"max" : 360,
				"min" : 0,
				"order" : 14,
				"text" : "Rotate",
				"type" : "slider",
				"value" : 0
			},
			"background_clockWeight" :
			{
				"order" : 9,
				"text" : "Bold font",
				"type" : "bool",
				"value" : false
			},
			"background_clockX" :
			{
				"max" : 100,
				"min" : 0,
				"order" : 12,
				"text" : "X position",
				"type" : "slider",
				"value" : 88
			},
			"background_clockY" :
			{
				"max" : 100,
				"min" : 0,
				"order" : 13,
				"text" : "Y position",
				"type" : "slider",
				"value" : 1
			},
			"background_clockcolour" :
			{
				"order" : 8,
				"text" : "Colour",
				"type" : "color",
				"value" : "255 255 255"
			},
			"background_clockopacity" :
			{
				"max" : 100,
				"min" : 0,
				"order" : 10,
				"text" : "Opacity",
				"type" : "slider",
				"value" : 70
			},
			"background_clocksize" :
			{
				"max" : 200,
				"min" : 10,
				"order" : 11,
				"text" : "Scale",
				"type" : "slider",
				"value" : 32
			},
			"background_dateR" :
			{
				"max" : 360,
				"min" : 0,
				"order" : 33,
				"text" : "Rotate",
				"type" : "slider",
				"value" : 0
			},
			"background_dateWeight" :
			{
				"order" : 28,
				"text" : "Bold font",
				"type" : "bool",
				"value" : false
			},
			"background_dateX" :
			{
				"max" : 100,
				"min" : 0,
				"order" : 31,
				"text" : "X position",
				"type" : "slider",
				"value" : 88
			},
			"background_dateY" :
			{
				"max" : 100,
				"min" : 0,
				"order" : 32,
				"text" : "Y position",
				"type" : "slider",
				"value" : 5
			},
			"background_dateblock1" :
			{
				"condition" : "Dateformat.value",
				"editable" : true,
				"options" :
				[
					{
						"label" : "None",
						"value" : 1
					},
					{
						"label" : "Full name",
						"value" : 2
					},
					{
						"label" : "Short name",
						"value" : 3
					}
				],
				"order" : 19,
				"text" : "Day",
				"type" : "combo",
				"value" : 1
			},
			"background_dateblock2" :
			{
				"condition" : "Dateformat.value",
				"editable" : true,
				"options" :
				[
					{
						"label" : "None",
						"value" : 1
					},
					{
						"label" : "MMMM",
						"value" : 2
					},
					{
						"label" : "MMM",
						"value" : 3
					},
					{
						"label" : "MM",
						"value" : 4
					},
					{
						"label" : "DDDD",
						"value" : 5
					},
					{
						"label" : "DDD",
						"value" : 6
					},
					{
						"label" : "DD",
						"value" : 7
					},
					{
						"label" : "YYYY",
						"value" : 8
					},
					{
						"label" : "YY",
						"value" : 9
					}
				],
				"order" : 21,
				"text" : "First element",
				"type" : "combo",
				"value" : 2
			},
			"background_dateblock3" :
			{
				"condition" : "Dateformat.value",
				"editable" : true,
				"options" :
				[
					{
						"label" : "None",
						"value" : 1
					},
					{
						"label" : "MMMM",
						"value" : 2
					},
					{
						"label" : "MMM",
						"value" : 3
					},
					{
						"label" : "MM",
						"value" : 4
					},
					{
						"label" : "DDDD",
						"value" : 5
					},
					{
						"label" : "DDD",
						"value" : 6
					},
					{
						"label" : "DD",
						"value" : 7
					}
				],
				"order" : 23,
				"text" : "Second element",
				"type" : "combo",
				"value" : 7
			},
			"background_dateblock4" :
			{
				"condition" : "Dateformat.value",
				"editable" : true,
				"options" :
				[
					{
						"label" : "None",
						"value" : 1
					},
					{
						"label" : "DDDD",
						"value" : 2
					},
					{
						"label" : "DDD",
						"value" : 3
					},
					{
						"label" : "DD",
						"value" : 4
					},
					{
						"label" : "YYYY",
						"value" : 5
					},
					{
						"label" : "YY",
						"value" : 6
					}
				],
				"order" : 25,
				"text" : "Third element",
				"type" : "combo",
				"value" : 5
			},
			"background_datecolour" :
			{
				"order" : 29,
				"text" : "Colour",
				"type" : "color",
				"value" : "255 255 255"
			},
			"background_dateopacity" :
			{
				"max" : 100,
				"min" : 0,
				"order" : 30,
				"text" : "Opacity",
				"type" : "slider",
				"value" : 70
			},
			"background_datesize" :
			{
				"max" : 200,
				"min" : 10,
				"order" : 27,
				"text" : "Scale",
				"type" : "slider",
				"value" : 12
			},
			"background_displaydate" :
			{
				"order" : 16,
				"text" : "Display",
				"type" : "bool",
				"value" : true
			},
			"background_displaytime" :
			{
				"order" : 3,
				"text" : "Display",
				"type" : "bool",
				"value" : true
			},
			"background_fontdate" :
			{
				"options" :
				[
					{
						"label" : "Orbitron",
						"value" : 1
					},
					{
						"label" : "Nunito-Italic",
						"value" : 2
					},
					{
						"label" : "Nunito-Regular",
						"value" : 3
					},
					{
						"label" : "Asinastra",
						"value" : 4
					},
					{
						"label" : "VT323",
						"value" : 5
					},
					{
						"label" : "Playball",
						"value" : 6
					},
					{
						"label" : "Knewave",
						"value" : 7
					},
					{
						"label" : "Knewave-Outline",
						"value" : 8
					},
					{
						"label" : "Miltown",
						"value" : 9
					},
					{
						"label" : "Raleway Dots",
						"value" : 10
					},
					{
						"label" : "VastShadow",
						"value" : 11
					},
					{
						"label" : "RobotoSlab",
						"value" : 12
					},
					{
						"label" : "ReenieBeanie",
						"value" : 13
					},
					{
						"label" : "LoveYaLikeASister",
						"value" : 14
					},
					{
						"label" : "Lobster",
						"value" : 15
					},
					{
						"label" : "Ubuntu",
						"value" : 16
					},
					{
						"label" : "BrushieBrushie",
						"value" : 17
					},
					{
						"label" : "Zamenhof-inverse",
						"value" : 18
					},
					{
						"label" : "Zamenhof-outline",
						"value" : 19
					},
					{
						"label" : "Astakhov Dished B Serif",
						"value" : 20
					},
					{
						"label" : "Astakhov Dished B2 Serif",
						"value" : 21
					},
					{
						"label" : "Capture it 2",
						"value" : 22
					}
				],
				"order" : 26,
				"text" : "Font",
				"type" : "combo",
				"value" : 12
			},
			"background_fonttime" :
			{
				"options" :
				[
					{
						"label" : "Orbitron",
						"value" : 1
					},
					{
						"label" : "Nunito-Italic",
						"value" : 2
					},
					{
						"label" : "Nunito-Regular",
						"value" : 3
					},
					{
						"label" : "Asinastra",
						"value" : 4
					},
					{
						"label" : "VT323",
						"value" : 5
					},
					{
						"label" : "Playball",
						"value" : 6
					},
					{
						"label" : "Knewave",
						"value" : 7
					},
					{
						"label" : "Knewave-Outline",
						"value" : 8
					},
					{
						"label" : "Miltown",
						"value" : 9
					},
					{
						"label" : "Raleway Dots",
						"value" : 10
					},
					{
						"label" : "VastShadow",
						"value" : 11
					},
					{
						"label" : "RobotoSlab",
						"value" : 12
					},
					{
						"label" : "ReenieBeanie",
						"value" : 13
					},
					{
						"label" : "LoveYaLikeASister",
						"value" : 14
					},
					{
						"label" : "Lobster",
						"value" : 15
					},
					{
						"label" : "Ubuntu",
						"value" : 16
					},
					{
						"label" : "BrushieBrushie",
						"value" : 17
					},
					{
						"label" : "Zamenhof-inverse",
						"value" : 18
					},
					{
						"label" : "Zamenhof-outline",
						"value" : 19
					},
					{
						"label" : "Astakhov Dished B Serif",
						"value" : 20
					},
					{
						"label" : "Astakhov Dished B2 Serif",
						"value" : 21
					},
					{
						"label" : "Capture it 2",
						"value" : 22
					}
				],
				"order" : 7,
				"text" : "Font",
				"type" : "combo",
				"value" : 1
			},
			"background_millisecond" :
			{
				"order" : 6,
				"text" : "Turn off/on, milliseconds",
				"type" : "bool",
				"value" : true
			},
			"background_months" :
			{
				"options" :
				[
					{
						"label" : "English",
						"value" : 1
					},
					{
						"label" : "Russian",
						"value" : 2
					},
					{
						"label" : "Ukrainian",
						"value" : 3
					},
					{
						"label" : "Polish",
						"value" : 4
					},
					{
						"label" : "Italian",
						"value" : 5
					},
					{
						"label" : "Portuguese",
						"value" : 6
					},
					{
						"label" : "French",
						"value" : 7
					},
					{
						"label" : "German",
						"value" : 8
					}
				],
				"order" : 1,
				"text" : "Select language",
				"type" : "combo",
				"value" : 1
			},
			"background_punctuationmark1" :
			{
				"condition" : "Dateformat.value",
				"editable" : true,
				"options" :
				[
					{
						"label" : "None",
						"value" : 1
					},
					{
						"label" : ".",
						"value" : 2
					},
					{
						"label" : ",",
						"value" : 3
					},
					{
						"label" : "/",
						"value" : 4
					},
					{
						"label" : "-",
						"value" : 5
					}
				],
				"order" : 20,
				"text" : "Punctuation mark",
				"type" : "combo",
				"value" : 1
			},
			"background_punctuationmark2" :
			{
				"condition" : "Dateformat.value",
				"editable" : true,
				"options" :
				[
					{
						"label" : "None",
						"value" : 1
					},
					{
						"label" : ".",
						"value" : 2
					},
					{
						"label" : ",",
						"value" : 3
					},
					{
						"label" : "/",
						"value" : 4
					},
					{
						"label" : "-",
						"value" : 5
					}
				],
				"order" : 22,
				"text" : "Punctuation mark",
				"type" : "combo",
				"value" : 1
			},
			"background_punctuationmark3" :
			{
				"condition" : "Dateformat.value",
				"editable" : true,
				"options" :
				[
					{
						"label" : "None",
						"value" : 1
					},
					{
						"label" : ".",
						"value" : 2
					},
					{
						"label" : ",",
						"value" : 3
					},
					{
						"label" : "/",
						"value" : 4
					},
					{
						"label" : "-",
						"value" : 5
					}
				],
				"order" : 24,
				"text" : "Punctuation mark",
				"type" : "combo",
				"value" : 3
			},
			"background_schemecolor" :
			{
				"order" : 0,
				"text" : "ui_browse_properties_scheme_color",
				"type" : "color",
				"value" : "0.10196078431372549 0.10196078431372549 0.10196078431372549"
			}
		},
		"supportsaudioprocessing" : true
	},
	"monetization" : false,
	"preview" : "preview.jpg",
	"tags" : [ "Abstract" ],
	"title" : "Custom base",
	"type" : "web",
	"visibility" : "public",
	"workshopid" : "1234567890"
}
